<svg width="24" height="24" viewBox="0 0 24 24" fill="none" xmlns="http://www.w3.org/2000/svg">
<path d="M23.2551 15.1972L20.7885 13.1663C20.8431 12.7694 20.8696 12.3841 20.8696 12C20.8696 11.6159 20.8431 11.2306 20.7885 10.8337L23.2551 8.8028C23.5506 8.55923 23.627 8.13839 23.4354 7.80722L21.3485 4.19278C21.1574 3.86109 20.7549 3.71639 20.3962 3.85139L17.3988 4.97433C16.7823 4.49944 16.1077 4.11019 15.3852 3.81164L14.8589 0.654188C14.7962 0.276656 14.4696 0 14.087 0H9.91307C9.53043 0 9.20381 0.276656 9.14118 0.654188L8.61487 3.81164C7.89238 4.11023 7.21781 4.49948 6.60126 4.97433L3.60374 3.85139C3.24557 3.71583 2.84254 3.86109 2.65148 4.19278L0.56451 7.80722C0.372932 8.13844 0.449385 8.55923 0.744885 8.8028L3.2114 10.8337C3.15693 11.2306 3.13045 11.6159 3.13045 12C3.13045 12.3841 3.15693 12.7694 3.21149 13.1663L0.744979 15.1972C0.449479 15.4408 0.373026 15.8616 0.564604 16.1928L2.65157 19.8072C2.84315 20.1389 3.24613 20.2846 3.60384 20.1486L6.60126 19.0257C7.21776 19.5006 7.89234 19.8898 8.61487 20.1884L9.14118 23.3458C9.20381 23.7233 9.53039 24 9.91302 24C11.4509 24 12.5476 24 14.0869 24C14.4696 24 14.7962 23.7233 14.8589 23.3458L15.3852 20.1883C16.1077 19.8897 16.7822 19.5005 17.3988 19.0256L20.3962 20.1486C20.7544 20.2841 21.1574 20.1389 21.3485 19.8072L23.4354 16.1927C23.6271 15.8616 23.5506 15.4407 23.2551 15.1972ZM13.5652 22.4348H10.4347V18.0539C10.9462 18.1872 11.4696 18.2593 11.9999 18.2593C12.5334 18.2593 13.0503 18.1892 13.5652 18.0538V22.4348H13.5652ZM13.7369 16.3589C13.7201 16.3655 13.7012 16.3716 13.6829 16.3772C13.1174 16.5928 12.563 16.6942 12 16.6942C11.4171 16.6942 10.8439 16.5851 10.2962 16.3711C10.285 16.3676 10.2737 16.3635 10.263 16.3594C8.46548 15.6405 7.30429 13.9295 7.30429 12C7.30429 10.5627 7.94629 9.22725 9.06618 8.33616C9.40706 8.06527 9.91298 8.30709 9.91298 8.74425V11.7392C9.91298 11.8324 9.96342 11.9196 10.0445 11.9659L11.8706 13.0094C11.9098 13.0319 11.9546 13.0435 11.9999 13.0435C12.0453 13.0435 12.0901 13.0318 12.1293 13.0094L13.9554 11.9659C14.0364 11.9195 14.0869 11.8324 14.0869 11.7392V8.7443C14.0869 8.30766 14.5932 8.06569 14.9337 8.3362C16.0536 9.2273 16.6956 10.5627 16.6956 12C16.6957 13.9295 15.5345 15.6405 13.7369 16.3589Z" fill="black"/>
</svg>
