<svg width="24" height="24" viewBox="0 0 24 24" fill="none" xmlns="http://www.w3.org/2000/svg">
<g clip-path="url(#clip0)">
<path d="M21.193 6.31615H14.195H14.1491H9.85089H9.80499H2.80699C2.37554 6.31615 2.02444 6.66725 2.02444 7.09869V7.68559C2.02444 8.11703 2.37554 8.46813 2.80699 8.46813H9.02245V14.9567V15.0879V22.6958C9.02245 23.4149 9.60752 24 10.3267 24H10.4185C11.1377 24 11.7227 23.4149 11.7227 22.6958V15.8704H12.2776V22.6958C12.2776 23.4149 12.8626 24 13.5818 24H13.6733C14.3925 24 14.9776 23.4149 14.9776 22.6958V15.0879V14.9567V8.46813H21.193C21.6245 8.46813 21.9756 8.11703 21.9756 7.68559V7.09869C21.9756 6.66725 21.6245 6.31615 21.193 6.31615Z" fill="black"/>
<path d="M11.9998 5.65307C13.5583 5.65307 14.8263 4.3851 14.8263 2.82654C14.8263 1.26798 13.5583 0 11.9998 0C10.4412 0 9.17349 1.26798 9.17349 2.82654C9.17349 4.3851 10.4412 5.65307 11.9998 5.65307Z" fill="black"/>
</g>
<defs>
<clipPath id="clip0">
<rect width="24" height="24" fill="white"/>
</clipPath>
</defs>
</svg>
