<svg width="24" height="24" viewBox="0 0 24 24" fill="none" xmlns="http://www.w3.org/2000/svg">
<g clip-path="url(#clip0)">
<path d="M22.9012 18.0914H1.09874C0.835204 18.0914 0.590002 18.2269 0.449849 18.4501C0.309696 18.6732 0.294056 18.9529 0.408403 19.1903L1.09335 20.6114C1.41328 21.2753 2.08511 21.6973 2.82211 21.6973H21.1779C21.9148 21.6973 22.5867 21.2753 22.9066 20.6114L23.5916 19.1903C23.7059 18.9529 23.6903 18.6733 23.5501 18.4501C23.4099 18.2269 23.1648 18.0914 22.9012 18.0914Z" fill="black"/>
<path d="M23.9968 15.7611C23.523 10.5662 18.6753 6.44086 12.6517 6.16168V5.40957C13.2228 5.15855 13.6221 4.58864 13.6221 3.9248C13.6221 3.02897 12.8959 2.30275 12.0001 2.30275C11.1042 2.30275 10.378 3.02897 10.378 3.9248C10.378 4.58864 10.7774 5.15855 11.3484 5.40957V6.16168C5.32486 6.44077 0.477041 10.5661 0.00323249 15.7611C-0.0164045 15.9756 0.0553662 16.1883 0.200472 16.3474C0.34549 16.5065 0.550984 16.5979 0.766296 16.5979H23.2339C23.4493 16.5979 23.6549 16.5072 23.8001 16.3479C23.9451 16.1886 24.0164 15.9757 23.9968 15.7611ZM7.09611 10.2531C5.40506 11.2161 4.23275 12.6761 3.79518 14.3641C3.71915 14.6577 3.45457 14.8525 3.16479 14.8525C3.11066 14.8525 3.05566 14.8457 3.00083 14.8314C2.65241 14.7411 2.44318 14.3855 2.53354 14.0371C3.06026 12.0053 4.45145 10.2592 6.45121 9.12044C6.76375 8.94223 7.16188 9.05137 7.34 9.36434C7.51813 9.67706 7.40891 10.075 7.09611 10.2531Z" fill="black"/>
</g>
<defs>
<clipPath id="clip0">
<rect width="24" height="24" fill="white"/>
</clipPath>
</defs>
</svg>
